{
  "news": {
    "singleNews": {
      "title": "We started expanding our products to South America",
      "subtitle": "Subtitle",
      "firstText": "Monus was founded in 1993. Initially, it was engaged in wholesale trade in consumable goods and in 1999 a strategic decision was made on the new development program and investment in the tobacco industry. The manufacture started in 2005.",
      "secondText": "Today, Monus has one of the most modern factories in the Balkans, which covers over 22,000 square meters, of which the production plant covers 13,010 square meters, and the finished product warehouse and the tobacco store covers 7,236 square meters. A factory that is fully automated, with six production lines and wide technical and technological capabilities. The production capacity is 10000 cigarettes per minute and the packing is 4000 kg of cut tobacco per hour.",
      "thirdText": "The company is in possession of ISO 9001: 2008 certificate issued by SGS (Société Générale de Surveillance), the world's largest certification company. In addition, Monus is the only tobacco company in Serbia that has been in possession of a Certificate of Accreditation of the Laboratory for Tobacco and Tobacco Products (ISO 17025), issued by the ATS (Accreditation Body of Serbia) since June 2009."
    }
  }
}