{
  "ourCompany": {
    "aboutUs": {
      "title": "O nama",
      "firstText": "Our story began back in 1993, at the time our company was engaged in wholesale trading of consumable goods until 1999, when the idea and the strategy for the development and investment in the tobacco industry emerged. Day by day we grew stronger, and in 2005 the manufacturing & production finally started.",
      "secondText": "Today, we can proudly say that we have one of the most modern, cutting edge technologies equipped production facilities in the Balkans. It covers more than 22.000 square meters with 13.010 square meters used in production processes and 7.236 square meters warehouse space and tobacco store.",
      "thirdText": "The manufacturing facilities are fully automated and equipped with the latest up to date  technology for tobacco processing. The production capacity is measured to be 10.000 cigarettes per minute and the packing is 4000 kilograms of cut tobacco per hour."
    },
    "companyFacts": {
      "title": "Činjenice kompanije",
      "employeesText": "{number} local employees",
      "brandsText": "Export of over {number} brands",
      "sticksTitle": "{number} bn",
      "sticksText": "Annual export of {number} billion sticks",
      "continentsText": "Exports to {number} continents"
    },
    "mission": {
      "title": "Misija",
      "subtitle": "Through continuous effective customer & consumer focus, we will endeavor to constantly innovate & produce high-quality tobacco products that appeal to the diverse likes & tastes of consumers while working for their utmost satisfaction & expectations.",
      "firstText": "Our company is consumer-oriented, which means that we put all of our efforts in understanding and satisfying the needs of our consumers. Following the contemporary trends in the tobacco industry, we constantly strive to deliver better-quality products than our competition and we strive to exceed the expectations of those who get in touch with our products for the first time.",
      "secondText": "Monus strives to follow global trends and is committed to the highest quality standards, not only when it comes to product quality, but also in design solutions and communication with its consumers. Through everlasting creativity and space for innovations, Monus keeps and nurtures its existing brands, and invests in the development of new ones. Our guideline is a simple idea of the top quality, innovative design, attractive formats, and definitely the best price possible.",
      "thirdText": "On top of all, we believe in good work ethics, and therefore we give our best to meet the expectations of our respected employees because it is they who are the real driving force of our company."
    },
    "vision": {
      "title": "Vizija",
      "subtitle": "We aim to be the sustainable bench-mark supplier of innovative high quality tobacco products offering substantial value to both consumers and business partners alike across our selling markets.",
      "firstText": "By our willingness and enthusiasm, we want to be a step ahead of everyone in the industry. Through continuous investment in the growth and productivity of the company, we see ourselves taking a leading role among the cigarette manufacturers in Serbia and in the region in the near future. And by the leading role, we mean creating a successful, efficient, professional and responsible company which develops stable and long-term business relationships based on mutual trust and understanding. Our goal, as a socially responsible company, is to actively contribute and invest in various projects relevant to the wider social community.",
      "secondText": "Our most valuable assets are our employees;  therefore, one of the main priorities for our future investments is high-quality education and training for them. We see the improvement and the development of our employees as the safest way towards achieving the goals of our company."
    },
    "responsability": {
      "title": "Odgovornost",
      "firstText": "Our responsibility and obligations are to inform all the partakers  about the quality and the harmful effects of our products. We respect all Laws and Rules regarding the producer obligations to underline the appropriate warnings on all products.",
      "secondText": "According to this fact, our products carry clear health warnings about the influence of cigarettes on consumers’ health and the effect of their environment. Our legal team works closely with governmental authorities and we take an active role in fighting against illegal trade.",
      "thirdText": "Monus exclusively operates in compliance with all legal & regulatory guidelines and regulations, both in domestic and International markets. Our company places special emphasis on environmental protection. Where our  modern technology adopted in the production process enables us to maintain an ecological balance and is completely safe for human health."
    },
    "certification": {
      "text": "The company is in possession of ISO 9001: 2015 certificate issued by SGS (Société Générale de Surveillance), the world's largest certification company. In addition, Monus is the only tobacco company in Serbia that carries a Certificate of Accreditation of the Laboratory for Tobacco and Tobacco Products (ISO/IEC 17025:2006), issued by the ATS (Accreditation Body of Serbia) since June 2009."
    }
  }
}